module erp

go 1.17

require (
	github.com/gofiber/fiber/v2 v2.23.0
	github.com/mattn/go-sqlite3 v1.14.9
	github.com/spf13/cast v1.4.1
	github.com/xo/dburl v0.9.0
)

require (
	github.com/andybalholm/brotli v1.0.2 // indirect
	github.com/klauspost/compress v1.13.4 // indirect
	github.com/valyala/bytebufferpool v1.0.0 // indirect
	github.com/valyala/fasthttp v1.31.0 // indirect
	github.com/valyala/tcplisten v1.0.0 // indirect
	golang.org/x/sys v0.0.0-20210514084401-e8d321eab015 // indirect
)
