module gitlab.com/wayanjimmy/commerce

go 1.20

require (
	github.com/go-resty/resty/v2 v2.7.0
	github.com/go-sql-driver/mysql v1.6.0
	github.com/jmoiron/sqlx v1.3.5
	github.com/rs/xid v1.4.0
	go.temporal.io/sdk v1.21.0
)

require (
	github.com/davecgh/go-spew v1.1.1 // indirect
	github.com/facebookgo/clock v0.0.0-20150410010913-600d898af40a // indirect
	github.com/gogo/googleapis v1.4.1 // indirect
	github.com/gogo/protobuf v1.3.2 // indirect
	github.com/gogo/status v1.1.1 // indirect
	github.com/golang/mock v1.6.0 // indirect
	github.com/golang/protobuf v1.5.2 // indirect
	github.com/google/uuid v1.3.0 // indirect
	github.com/grpc-ecosystem/go-grpc-middleware v1.3.0 // indirect
	github.com/pborman/uuid v1.2.1 // indirect
	github.com/pmezard/go-difflib v1.0.0 // indirect
	github.com/robfig/cron v1.2.0 // indirect
	github.com/stretchr/objx v0.5.0 // indirect
	github.com/stretchr/testify v1.8.1 // indirect
	go.temporal.io/api v1.16.0 // indirect
	go.uber.org/atomic v1.9.0 // indirect
	golang.org/x/net v0.5.0 // indirect
	golang.org/x/sys v0.4.0 // indirect
	golang.org/x/text v0.6.0 // indirect
	golang.org/x/time v0.1.0 // indirect
	google.golang.org/genproto v0.0.0-20230127162408-596548ed4efa // indirect
	google.golang.org/grpc v1.52.3 // indirect
	google.golang.org/protobuf v1.28.1 // indirect
	gopkg.in/yaml.v3 v3.0.1 // indirect
)
